<svg xmlns="http://www.w3.org/2000/svg" width="28" height="28" viewBox="0 0 28 28">
  <g id="Group_1492" data-name="Group 1492" transform="translate(-111 -623.599)">
    <g id="Group_1503" data-name="Group 1503" transform="translate(111 623.4)">
      <rect id="Rectangle_618" data-name="Rectangle 618" width="28" height="28" transform="translate(0 0.199)" fill="none"/>
      <circle id="Ellipse_79" data-name="Ellipse 79" cx="11" cy="11" r="11" transform="translate(3.5 3.699)" fill="none" stroke="#fff" stroke-linecap="round" stroke-linejoin="round" stroke-width="1"/>
      <g id="Group_5258" data-name="Group 5258" transform="translate(11 8.66)">
        <g id="Group_5257" data-name="Group 5257" transform="translate(3.954 -1)">
          <line id="Line_96" data-name="Line 96" y2="2" transform="translate(-0.316 0.539)" fill="none" stroke="#fff" stroke-linecap="round" stroke-linejoin="round" stroke-width="1"/>
          <line id="Line_97" data-name="Line 97" y2="2" transform="translate(-0.316 12.539)" fill="none" stroke="#fff" stroke-linecap="round" stroke-linejoin="round" stroke-width="1"/>
        </g>
        <path id="Path_1005" data-name="Path 1005" d="M96.906,97.061h4.077a2.265,2.265,0,1,0,0-4.531H98.265a2.265,2.265,0,0,1,0-4.531h4.077" transform="translate(-96 -85.978)" fill="none" stroke="#fff" stroke-linecap="round" stroke-linejoin="round" stroke-width="1"/>
      </g>
    </g>
  </g>
</svg>
